INDEX VERSION 1.130+D:\Test Projects\NumberGenerator\.metadata\.plugins\org.eclipse.jdt.core
306780836.index
607522861.index
636016986.index
2538215463.index
648506100.index
1220308574.index
2125071999.index
1223396850.index
582872082.index
2492604015.index
2086043034.index
503605182.index
4213348864.index
2762649813.index
362242403.index
3949572246.index
979051724.index
2668948516.index
4054038625.index
2978330599.index
3244853415.index
